 untrx 0.54 beta - (c)2006-2010 Jeremy Collake
 Opening dd-wrt.K3_R7000.chk
 read 19918906 bytes
 ERROR trx header not found
 splitter3 0.10 beta - (c)2010 Jeremy Collake
 Opening dd-wrt.K3_R7000.chk
 read 19918906 bytes
 SQUASHFS magic: 0x74717368
 SQUASHFS version: 3.0
 Found segment type 0x4 Kernel length is 16003a
 File system length is 119efc6
 Trailer is 3a bytes
  Writing ./working_dir/image_parts/vmlinuz
    size 1441850 from offset 0 ...
 SQUASHFS magic: 0x74717368
 SQUASHFS version: 3.0
  SQUASHFS v3.0 image detected
  Writing ./working_dir/image_parts/squashfs_magic
  Writing ./working_dir/image_parts/squashfs-lzma-image-3_0
    size 18476998 from offset 1441850 ...
  Writing ./working_dir/image_parts/hwid.txt
    size 58 from offset 19918848 ...
  Done!

created 1384 files
created 137 directories
created 343 symlinks
created 0 devices
created 0 fifos
 untrx 0.54 beta - (c)2006-2010 Jeremy Collake
 Opening K3_R7000_03-Jun-2016.chk
 read 24518714 bytes
 ERROR trx header not found
 splitter3 0.10 beta - (c)2010 Jeremy Collake
 Opening K3_R7000_03-Jun-2016.chk
 read 24518714 bytes
 SQUASHFS magic: 0x74717368
 SQUASHFS version: 3.0
 Found segment type 0x4 Kernel length is 18003a
 File system length is 15e1fc6
 Trailer is 3a bytes
  Writing working_dir/image_parts/vmlinuz
    size 1572922 from offset 0 ...
 SQUASHFS magic: 0x74717368
 SQUASHFS version: 3.0
  SQUASHFS v3.0 image detected
  Writing working_dir/image_parts/squashfs_magic
  Writing working_dir/image_parts/squashfs-lzma-image-3_0
    size 22945734 from offset 1572922 ...
  Writing working_dir/image_parts/hwid.txt
    size 58 from offset 24518656 ...
  Done!

created 1693 files
created 209 directories
created 358 symlinks
created 0 devices
created 0 fifos
 untrx 0.54 beta - (c)2006-2010 Jeremy Collake
 Opening dd-wrt.K3_R7000.chk
 read 19918906 bytes
 ERROR trx header not found
 splitter3 0.10 beta - (c)2010 Jeremy Collake
 Opening dd-wrt.K3_R7000.chk
 read 19918906 bytes
 SQUASHFS magic: 0x74717368
 SQUASHFS version: 3.0
 Found segment type 0x4 Kernel length is 16003a
 File system length is 119efc6
 Trailer is 3a bytes
  Writing working_dir/image_parts/vmlinuz
    size 1441850 from offset 0 ...
 SQUASHFS magic: 0x74717368
 SQUASHFS version: 3.0
  SQUASHFS v3.0 image detected
  Writing working_dir/image_parts/squashfs_magic
  Writing working_dir/image_parts/squashfs-lzma-image-3_0
    size 18476998 from offset 1441850 ...
  Writing working_dir/image_parts/hwid.txt
    size 58 from offset 19918848 ...
  Done!

created 1384 files
created 137 directories
created 343 symlinks
created 0 devices
created 0 fifos
 untrx 0.54 beta - (c)2006-2010 Jeremy Collake
 Opening dd-wrt.K3_R7000.chk
 read 19918906 bytes
 ERROR trx header not found
 splitter3 0.10 beta - (c)2010 Jeremy Collake
 Opening dd-wrt.K3_R7000.chk
 read 19918906 bytes
 SQUASHFS magic: 0x74717368
 SQUASHFS version: 3.0
 Found segment type 0x4 Kernel length is 16003a
 File system length is 119efc6
 Trailer is 3a bytes
  Writing working_dir/image_parts/vmlinuz
    size 1441850 from offset 0 ...
 SQUASHFS magic: 0x74717368
 SQUASHFS version: 3.0
  SQUASHFS v3.0 image detected
  Writing working_dir/image_parts/squashfs_magic
  Writing working_dir/image_parts/squashfs-lzma-image-3_0
    size 18476998 from offset 1441850 ...
  Writing working_dir/image_parts/hwid.txt
    size 58 from offset 19918848 ...
  Done!

created 1384 files
created 137 directories
created 343 symlinks
created 0 devices
created 0 fifos
 untrx 0.54 beta - (c)2006-2010 Jeremy Collake
 Opening dd-wrt.K3_R7000.chk
 read 19918906 bytes
 ERROR trx header not found
 splitter3 0.10 beta - (c)2010 Jeremy Collake
 Opening dd-wrt.K3_R7000.chk
 read 19918906 bytes
 SQUASHFS magic: 0x74717368
 SQUASHFS version: 3.0
 Found segment type 0x4 Kernel length is 16003a
 File system length is 119efc6
 Trailer is 3a bytes
  Writing working_dir/image_parts/vmlinuz
    size 1441850 from offset 0 ...
 SQUASHFS magic: 0x74717368
 SQUASHFS version: 3.0
  SQUASHFS v3.0 image detected
  Writing working_dir/image_parts/squashfs_magic
  Writing working_dir/image_parts/squashfs-lzma-image-3_0
    size 18476998 from offset 1441850 ...
  Writing working_dir/image_parts/hwid.txt
    size 58 from offset 19918848 ...
  Done!

created 1384 files
created 137 directories
created 343 symlinks
created 0 devices
created 0 fifos
